# 3ds Max Wavefront OBJ Exporter v0.97b - (c)2007 guruware
# File Created: 23.08.2017 20:17:59

newmtl BurkaMan
	Ns 0.0000
	Ni 1.5000
	d 1.0000
	Tr 0.0000
	Tf 1.0000 1.0000 1.0000 
	illum 2
	Ka 1.0000 1.0000 1.0000
	Kd 1.0000 1.0000 1.0000
	Ks 0.0000 0.0000 0.0000
	Ke 0.0000 0.0000 0.0000
	map_Ka D:\8 Projects\PROJET-WarehouseTamTam\Photogrammetry\Characters\BurkaMan_Alone2\BurkaMan_Alone.jpg
map_Kd BurkaMan.jpg
